%YAML 1.1
%TAG !u! tag:unity3d.com,2011:
--- !u!29 &1
OcclusionCullingSettings:
  m_ObjectHideFlags: 0
  serializedVersion: 2
  m_OcclusionBakeSettings:
    smallestOccluder: 5
    smallestHole: 0.25
    backfaceThreshold: 100
  m_SceneGUID: 00000000000000000000000000000000
  m_OcclusionCullingData: {fileID: 0}
--- !u!104 &2
RenderSettings:
  m_ObjectHideFlags: 0
  serializedVersion: 9
  m_Fog: 0
  m_FogColor: {r: 0.5, g: 0.5, b: 0.5, a: 1}
  m_FogMode: 3
  m_FogDensity: 0.01
  m_LinearFogStart: 0
  m_LinearFogEnd: 300
  m_AmbientSkyColor: {r: 0.308391, g: 0.3155113, b: 0.45588237, a: 1}
  m_AmbientEquatorColor: {r: 0.308391, g: 0.3155113, b: 0.45588237, a: 1}
  m_AmbientGroundColor: {r: 0.308391, g: 0.3155113, b: 0.45588237, a: 1}
  m_AmbientIntensity: 1
  m_AmbientMode: 3
  m_SubtractiveShadowColor: {r: 0.42, g: 0.478, b: 0.627, a: 1}
  m_SkyboxMaterial: {fileID: 2100000, guid: 53412155bc1016547b1a77b2333c0380, type: 2}
  m_HaloStrength: 0.5
  m_FlareStrength: 1
  m_FlareFadeSpeed: 3
  m_HaloTexture: {fileID: 0}
  m_SpotCookie: {fileID: 10001, guid: 0000000000000000e000000000000000, type: 0}
  m_DefaultReflectionMode: 0
  m_DefaultReflectionResolution: 128
  m_ReflectionBounces: 1
  m_ReflectionIntensity: 1
  m_CustomReflection: {fileID: 0}
  m_Sun: {fileID: 0}
  m_IndirectSpecularColor: {r: 0, g: 0, b: 0, a: 1}
  m_UseRadianceAmbientProbe: 0
--- !u!157 &4
LightmapSettings:
  m_ObjectHideFlags: 0
  serializedVersion: 11
  m_GIWorkflowMode: 1
  m_GISettings:
    serializedVersion: 2
    m_BounceScale: 1
    m_IndirectOutputScale: 1
    m_AlbedoBoost: 1
    m_EnvironmentLightingMode: 0
    m_EnableBakedLightmaps: 1
    m_EnableRealtimeLightmaps: 0
  m_LightmapEditorSettings:
    serializedVersion: 12
    m_Resolution: 1
    m_BakeResolution: 50
    m_AtlasSize: 1024
    m_AO: 1
    m_AOMaxDistance: 1
    m_CompAOExponent: 1
    m_CompAOExponentDirect: 0
    m_ExtractAmbientOcclusion: 0
    m_Padding: 2
    m_LightmapParameters: {fileID: 0}
    m_LightmapsBakeMode: 0
    m_TextureCompression: 0
    m_FinalGather: 0
    m_FinalGatherFiltering: 1
    m_FinalGatherRayCount: 256
    m_ReflectionCompression: 2
    m_MixedBakeMode: 1
    m_BakeBackend: 0
    m_PVRSampling: 1
    m_PVRDirectSampleCount: 32
    m_PVRSampleCount: 512
    m_PVRBounces: 2
    m_PVREnvironmentSampleCount: 512
    m_PVREnvironmentReferencePointCount: 2048
    m_PVRFilteringMode: 0
    m_PVRDenoiserTypeDirect: 0
    m_PVRDenoiserTypeIndirect: 0
    m_PVRDenoiserTypeAO: 0
    m_PVRFilterTypeDirect: 0
    m_PVRFilterTypeIndirect: 0
    m_PVRFilterTypeAO: 0
    m_PVREnvironmentMIS: 0
    m_PVRCulling: 1
    m_PVRFilteringGaussRadiusDirect: 1
    m_PVRFilteringGaussRadiusIndirect: 5
    m_PVRFilteringGaussRadiusAO: 2
    m_PVRFilteringAtrousPositionSigmaDirect: 0.5
    m_PVRFilteringAtrousPositionSigmaIndirect: 2
    m_PVRFilteringAtrousPositionSigmaAO: 1
    m_ShowResolutionOverlay: 1
    m_ExportTrainingData: 0
  m_LightingDataAsset: {fileID: 0}
  m_UseShadowmask: 0
--- !u!196 &5
NavMeshSettings:
  serializedVersion: 2
  m_ObjectHideFlags: 0
  m_BuildSettings:
    serializedVersion: 2
    agentTypeID: 0
    agentRadius: 0.5
    agentHeight: 2
    agentSlope: 45
    agentClimb: 0.4
    ledgeDropHeight: 0
    maxJumpAcrossDistance: 0
    minRegionArea: 2
    manualCellSize: 0
    cellSize: 0.16666666
    manualTileSize: 0
    tileSize: 256
    accuratePlacement: 0
    debug:
      m_Flags: 0
  m_NavMeshData: {fileID: 0}
--- !u!1001 &837223644
PrefabInstance:
  m_ObjectHideFlags: 0
  serializedVersion: 2
  m_Modification:
    m_TransformParent: {fileID: 1808623110}
    m_Modifications:
    - target: {fileID: 100000, guid: 39235d3abde43964c9c2fac357f88b7d, type: 3}
      propertyPath: m_StaticEditorFlags
      value: 1
      objectReference: {fileID: 0}
    - target: {fileID: 400000, guid: 39235d3abde43964c9c2fac357f88b7d, type: 3}
      propertyPath: m_LocalPosition.x
      value: -52.5303917
      objectReference: {fileID: 0}
    - target: {fileID: 400000, guid: 39235d3abde43964c9c2fac357f88b7d, type: 3}
      propertyPath: m_LocalPosition.y
      value: 3.57627869e-07
      objectReference: {fileID: 0}
    - target: {fileID: 400000, guid: 39235d3abde43964c9c2fac357f88b7d, type: 3}
      propertyPath: m_LocalPosition.z
      value: -1.96686528e-06
      objectReference: {fileID: 0}
    - target: {fileID: 400000, guid: 39235d3abde43964c9c2fac357f88b7d, type: 3}
      propertyPath: m_LocalRotation.x
      value: -.5
      objectReference: {fileID: 0}
    - target: {fileID: 400000, guid: 39235d3abde43964c9c2fac357f88b7d, type: 3}
      propertyPath: m_LocalRotation.y
      value: .5
      objectReference: {fileID: 0}
    - target: {fileID: 400000, guid: 39235d3abde43964c9c2fac357f88b7d, type: 3}
      propertyPath: m_LocalRotation.z
      value: .5
      objectReference: {fileID: 0}
    - target: {fileID: 400000, guid: 39235d3abde43964c9c2fac357f88b7d, type: 3}
      propertyPath: m_LocalRotation.w
      value: .5
      objectReference: {fileID: 0}
    - target: {fileID: 2300000, guid: 39235d3abde43964c9c2fac357f88b7d, type: 3}
      propertyPath: m_ScaleInLightmap
      value: .200000003
      objectReference: {fileID: 0}
    - target: {fileID: 2300000, guid: 39235d3abde43964c9c2fac357f88b7d, type: 3}
      propertyPath: m_LightmapIndex
      value: 1
      objectReference: {fileID: 0}
    - target: {fileID: 2300000, guid: 39235d3abde43964c9c2fac357f88b7d, type: 3}
      propertyPath: m_LightmapTilingOffset.x
      value: .087890625
      objectReference: {fileID: 0}
    - target: {fileID: 2300000, guid: 39235d3abde43964c9c2fac357f88b7d, type: 3}
      propertyPath: m_LightmapTilingOffset.y
      value: .087890625
      objectReference: {fileID: 0}
    - target: {fileID: 2300000, guid: 39235d3abde43964c9c2fac357f88b7d, type: 3}
      propertyPath: m_LightmapTilingOffset.z
      value: .377929688
      objectReference: {fileID: 0}
    - target: {fileID: 2300000, guid: 39235d3abde43964c9c2fac357f88b7d, type: 3}
      propertyPath: m_LightmapTilingOffset.w
      value: .81640625
      objectReference: {fileID: 0}
    m_RemovedComponents: []
  m_SourcePrefab: {fileID: 100100000, guid: 39235d3abde43964c9c2fac357f88b7d, type: 3}
--- !u!1001 &905443998
PrefabInstance:
  m_ObjectHideFlags: 0
  serializedVersion: 2
  m_Modification:
    m_TransformParent: {fileID: 1808623110}
    m_Modifications:
    - target: {fileID: 100000, guid: 39235d3abde43964c9c2fac357f88b7d, type: 3}
      propertyPath: m_StaticEditorFlags
      value: 1
      objectReference: {fileID: 0}
    - target: {fileID: 400000, guid: 39235d3abde43964c9c2fac357f88b7d, type: 3}
      propertyPath: m_LocalPosition.x
      value: 52.5200081
      objectReference: {fileID: 0}
    - target: {fileID: 400000, guid: 39235d3abde43964c9c2fac357f88b7d, type: 3}
      propertyPath: m_LocalPosition.y
      value: 0
      objectReference: {fileID: 0}
    - target: {fileID: 400000, guid: 39235d3abde43964c9c2fac357f88b7d, type: 3}
      propertyPath: m_LocalPosition.z
      value: 1.87826154e-05
      objectReference: {fileID: 0}
    - target: {fileID: 400000, guid: 39235d3abde43964c9c2fac357f88b7d, type: 3}
      propertyPath: m_LocalRotation.x
      value: -.499999881
      objectReference: {fileID: 0}
    - target: {fileID: 400000, guid: 39235d3abde43964c9c2fac357f88b7d, type: 3}
      propertyPath: m_LocalRotation.y
      value: -.500000119
      objectReference: {fileID: 0}
    - target: {fileID: 400000, guid: 39235d3abde43964c9c2fac357f88b7d, type: 3}
      propertyPath: m_LocalRotation.z
      value: -.50000006
      objectReference: {fileID: 0}
    - target: {fileID: 400000, guid: 39235d3abde43964c9c2fac357f88b7d, type: 3}
      propertyPath: m_LocalRotation.w
      value: .499999911
      objectReference: {fileID: 0}
    - target: {fileID: 2300000, guid: 39235d3abde43964c9c2fac357f88b7d, type: 3}
      propertyPath: m_ScaleInLightmap
      value: .200000003
      objectReference: {fileID: 0}
    - target: {fileID: 2300000, guid: 39235d3abde43964c9c2fac357f88b7d, type: 3}
      propertyPath: m_LightmapIndex
      value: 1
      objectReference: {fileID: 0}
    - target: {fileID: 2300000, guid: 39235d3abde43964c9c2fac357f88b7d, type: 3}
      propertyPath: m_LightmapTilingOffset.x
      value: .087890625
      objectReference: {fileID: 0}
    - target: {fileID: 2300000, guid: 39235d3abde43964c9c2fac357f88b7d, type: 3}
      propertyPath: m_LightmapTilingOffset.y
      value: .087890625
      objectReference: {fileID: 0}
    - target: {fileID: 2300000, guid: 39235d3abde43964c9c2fac357f88b7d, type: 3}
      propertyPath: m_LightmapTilingOffset.z
      value: .377929688
      objectReference: {fileID: 0}
    - target: {fileID: 2300000, guid: 39235d3abde43964c9c2fac357f88b7d, type: 3}
      propertyPath: m_LightmapTilingOffset.w
      value: .73046875
      objectReference: {fileID: 0}
    m_RemovedComponents: []
  m_SourcePrefab: {fileID: 100100000, guid: 39235d3abde43964c9c2fac357f88b7d, type: 3}
--- !u!1 &1808623109 stripped
GameObject:
  m_CorrespondingSourceObject: {fileID: 100008, guid: 68142563652b7014ba3f32c3db0eff67,
    type: 3}
  m_PrefabInstance: {fileID: 2108715791}
  m_PrefabAsset: {fileID: 0}
--- !u!4 &1808623110 stripped
Transform:
  m_CorrespondingSourceObject: {fileID: 400008, guid: 68142563652b7014ba3f32c3db0eff67,
    type: 3}
  m_PrefabInstance: {fileID: 2108715791}
  m_PrefabAsset: {fileID: 0}
--- !u!65 &1808623111
BoxCollider:
  m_ObjectHideFlags: 0
  m_CorrespondingSourceObject: {fileID: 0}
  m_PrefabInstance: {fileID: 0}
  m_PrefabAsset: {fileID: 0}
  m_GameObject: {fileID: 1808623109}
  m_Material: {fileID: 0}
  m_IsTrigger: 0
  m_Enabled: 1
  serializedVersion: 2
  m_Size: {x: 1, y: 1, z: 1}
  m_Center: {x: 0, y: 0, z: 0}
--- !u!1001 &2108715791
PrefabInstance:
  m_ObjectHideFlags: 0
  serializedVersion: 2
  m_Modification:
    m_TransformParent: {fileID: 0}
    m_Modifications:
    - target: {fileID: 100008, guid: 68142563652b7014ba3f32c3db0eff67, type: 3}
      propertyPath: m_StaticEditorFlags
      value: 4294967295
      objectReference: {fileID: 0}
    - target: {fileID: 100000, guid: 68142563652b7014ba3f32c3db0eff67, type: 3}
      propertyPath: m_StaticEditorFlags
      value: 4294967295
      objectReference: {fileID: 0}
    - target: {fileID: 100002, guid: 68142563652b7014ba3f32c3db0eff67, type: 3}
      propertyPath: m_StaticEditorFlags
      value: 4294967295
      objectReference: {fileID: 0}
    - target: {fileID: 100002, guid: 68142563652b7014ba3f32c3db0eff67, type: 3}
      propertyPath: m_Layer
      value: 9
      objectReference: {fileID: 0}
    - target: {fileID: 100004, guid: 68142563652b7014ba3f32c3db0eff67, type: 3}
      propertyPath: m_StaticEditorFlags
      value: 4294967295
      objectReference: {fileID: 0}
    - target: {fileID: 100006, guid: 68142563652b7014ba3f32c3db0eff67, type: 3}
      propertyPath: m_StaticEditorFlags
      value: 4294967295
      objectReference: {fileID: 0}
    - target: {fileID: 400008, guid: 68142563652b7014ba3f32c3db0eff67, type: 3}
      propertyPath: m_LocalPosition.x
      value: 0
      objectReference: {fileID: 0}
    - target: {fileID: 400008, guid: 68142563652b7014ba3f32c3db0eff67, type: 3}
      propertyPath: m_LocalPosition.y
      value: 0
      objectReference: {fileID: 0}
    - target: {fileID: 400008, guid: 68142563652b7014ba3f32c3db0eff67, type: 3}
      propertyPath: m_LocalPosition.z
      value: -41.5200005
      objectReference: {fileID: 0}
    - target: {fileID: 400008, guid: 68142563652b7014ba3f32c3db0eff67, type: 3}
      propertyPath: m_LocalRotation.x
      value: 0
      objectReference: {fileID: 0}
    - target: {fileID: 400008, guid: 68142563652b7014ba3f32c3db0eff67, type: 3}
      propertyPath: m_LocalRotation.y
      value: .70710665
      objectReference: {fileID: 0}
    - target: {fileID: 400008, guid: 68142563652b7014ba3f32c3db0eff67, type: 3}
      propertyPath: m_LocalRotation.z
      value: 0
      objectReference: {fileID: 0}
    - target: {fileID: 400008, guid: 68142563652b7014ba3f32c3db0eff67, type: 3}
      propertyPath: m_LocalRotation.w
      value: -.707107008
      objectReference: {fileID: 0}
    - target: {fileID: 2300000, guid: 68142563652b7014ba3f32c3db0eff67, type: 3}
      propertyPath: m_ScaleInLightmap
      value: .0599999987
      objectReference: {fileID: 0}
    - target: {fileID: 2300000, guid: 68142563652b7014ba3f32c3db0eff67, type: 3}
      propertyPath: m_LightmapIndex
      value: 0
      objectReference: {fileID: 0}
    - target: {fileID: 2300000, guid: 68142563652b7014ba3f32c3db0eff67, type: 3}
      propertyPath: m_LightmapTilingOffset.z
      value: -.00884899963
      objectReference: {fileID: 0}
    - target: {fileID: 2300000, guid: 68142563652b7014ba3f32c3db0eff67, type: 3}
      propertyPath: m_LightmapTilingOffset.w
      value: -.00884899963
      objectReference: {fileID: 0}
    - target: {fileID: 2300000, guid: 68142563652b7014ba3f32c3db0eff67, type: 3}
      propertyPath: m_Materials.Array.data[3]
      value: 
      objectReference: {fileID: 2100000, guid: 772dae3ec7390f245b56f320f7c0a5ed, type: 2}
    - target: {fileID: 2300002, guid: 68142563652b7014ba3f32c3db0eff67, type: 3}
      propertyPath: m_ScaleInLightmap
      value: .200000003
      objectReference: {fileID: 0}
    - target: {fileID: 2300002, guid: 68142563652b7014ba3f32c3db0eff67, type: 3}
      propertyPath: m_LightmapIndex
      value: 1
      objectReference: {fileID: 0}
    - target: {fileID: 2300002, guid: 68142563652b7014ba3f32c3db0eff67, type: 3}
      propertyPath: m_LightmapTilingOffset.z
      value: -.0146740004
      objectReference: {fileID: 0}
    - target: {fileID: 2300002, guid: 68142563652b7014ba3f32c3db0eff67, type: 3}
      propertyPath: m_LightmapTilingOffset.w
      value: -.0146740004
      objectReference: {fileID: 0}
    - target: {fileID: 2300004, guid: 68142563652b7014ba3f32c3db0eff67, type: 3}
      propertyPath: m_ScaleInLightmap
      value: .100000001
      objectReference: {fileID: 0}
    - target: {fileID: 2300004, guid: 68142563652b7014ba3f32c3db0eff67, type: 3}
      propertyPath: m_LightmapIndex
      value: 1
      objectReference: {fileID: 0}
    - target: {fileID: 2300004, guid: 68142563652b7014ba3f32c3db0eff67, type: 3}
      propertyPath: m_LightmapTilingOffset.x
      value: .395507812
      objectReference: {fileID: 0}
    - target: {fileID: 2300004, guid: 68142563652b7014ba3f32c3db0eff67, type: 3}
      propertyPath: m_LightmapTilingOffset.y
      value: .395507812
      objectReference: {fileID: 0}
    - target: {fileID: 2300004, guid: 68142563652b7014ba3f32c3db0eff67, type: 3}
      propertyPath: m_LightmapTilingOffset.z
      value: -.0111616263
      objectReference: {fileID: 0}
    - target: {fileID: 2300004, guid: 68142563652b7014ba3f32c3db0eff67, type: 3}
      propertyPath: m_LightmapTilingOffset.w
      value: .708504617
      objectReference: {fileID: 0}
    - target: {fileID: 2300006, guid: 68142563652b7014ba3f32c3db0eff67, type: 3}
      propertyPath: m_LightmapIndex
      value: 1
      objectReference: {fileID: 0}
    - target: {fileID: 2300006, guid: 68142563652b7014ba3f32c3db0eff67, type: 3}
      propertyPath: m_LightmapTilingOffset.z
      value: -.0127919996
      objectReference: {fileID: 0}
    - target: {fileID: 2300006, guid: 68142563652b7014ba3f32c3db0eff67, type: 3}
      propertyPath: m_LightmapTilingOffset.w
      value: .462793946
      objectReference: {fileID: 0}
    m_RemovedComponents: []
  m_SourcePrefab: {fileID: 100100000, guid: 68142563652b7014ba3f32c3db0eff67, type: 3}
